<?xml version="1.0" encoding="UTF-8" standalone="no"?>
<!-- Created with Inkscape (http://www.inkscape.org/) -->

<svg
   xmlns:dc="http://purl.org/dc/elements/1.1/"
   xmlns:cc="http://creativecommons.org/ns#"
   xmlns:rdf="http://www.w3.org/1999/02/22-rdf-syntax-ns#"
   xmlns:svg="http://www.w3.org/2000/svg"
   xmlns="http://www.w3.org/2000/svg"
   xmlns:sodipodi="http://sodipodi.sourceforge.net/DTD/sodipodi-0.dtd"
   xmlns:inkscape="http://www.inkscape.org/namespaces/inkscape"
   width="17.638611"
   height="17.638668"
   viewBox="0 0 4.6668826 4.6668978"
   version="1.1"
   id="svg8"
   inkscape:version="0.92.3 (2405546, 2018-03-11)"
   sodipodi:docname="icon-close.svg">
  <defs
     id="defs2">
    <filter
       id="filter849"
       style="color-interpolation-filters:sRGB"
       x="-0.25"
       width="1.5"
       y="-0.25"
       height="1.5"
       inkscape:menu-tooltip="3D warped marble texture"
       inkscape:menu="Materials"
       inkscape:label="3D Marble">
      <feGaussianBlur
         id="feGaussianBlur821"
         result="result8"
         stdDeviation="4" />
      <feTurbulence
         id="feTurbulence823"
         baseFrequency="0.01 0.01"
         numOctaves="7"
         type="turbulence"
         result="result7"
         seed="50" />
      <feColorMatrix
         id="feColorMatrix825"
         values="1 0 0 0 0 0 1 0 0 0 0 0 1 0 0 0 0 0 1.4 0 "
         result="result5" />
      <feComposite
         id="feComposite827"
         in2="result8"
         operator="in"
         in="result5"
         result="result6" />
      <feDisplacementMap
         id="feDisplacementMap829"
         in2="result6"
         result="result4"
         scale="100"
         yChannelSelector="A"
         xChannelSelector="A"
         in="result5" />
      <feFlood
         id="feFlood831"
         flood-color="rgb(224,224,224)"
         flood-opacity="1" />
      <feComposite
         id="feComposite833"
         in2="result4"
         operator="atop"
         result="result2" />
      <feComposite
         id="feComposite835"
         result="result9"
         in2="SourceGraphic"
         operator="atop"
         in="result2" />
      <feBlend
         id="feBlend837"
         in2="result9"
         mode="darken"
         result="fbSourceGraphic" />
      <feGaussianBlur
         id="feGaussianBlur839"
         result="result0"
         in="fbSourceGraphic"
         stdDeviation="5" />
      <feSpecularLighting
         id="feSpecularLighting843"
         specularExponent="30"
         specularConstant="0.80000001"
         surfaceScale="8"
         lighting-color="#ffffff"
         result="result1"
         in="result0">
        <feDistantLight
           id="feDistantLight841"
           azimuth="235"
           elevation="55" />
      </feSpecularLighting>
      <feComposite
         id="feComposite845"
         operator="in"
         result="result2"
         in="result1"
         in2="fbSourceGraphic" />
      <feComposite
         k4="0"
         k1="0"
         id="feComposite847"
         in2="result2"
         k3="1"
         k2="1"
         operator="arithmetic"
         result="result4"
         in="fbSourceGraphic" />
    </filter>
  </defs>
  <sodipodi:namedview
     id="base"
     pagecolor="#ffffff"
     bordercolor="#666666"
     borderopacity="1.0"
     inkscape:pageopacity="0.0"
     inkscape:pageshadow="2"
     inkscape:zoom="7.9195959"
     inkscape:cx="-3.7247616"
     inkscape:cy="14.609425"
     inkscape:document-units="px"
     inkscape:current-layer="layer1"
     showgrid="false"
     fit-margin-top="0"
     fit-margin-left="0"
     fit-margin-right="0"
     fit-margin-bottom="0"
     units="px"
     inkscape:window-width="1366"
     inkscape:window-height="705"
     inkscape:window-x="-8"
     inkscape:window-y="-8"
     inkscape:window-maximized="1" />
  <metadata
     id="metadata5">
    <rdf:RDF>
      <cc:Work
         rdf:about="">
        <dc:format>image/svg+xml</dc:format>
        <dc:type
           rdf:resource="http://purl.org/dc/dcmitype/StillImage" />
        <dc:title />
      </cc:Work>
    </rdf:RDF>
  </metadata>
  <g
     inkscape:label="Taso 1"
     inkscape:groupmode="layer"
     id="layer1"
     transform="translate(-102.66657,-146.16655)">
    <path
       inkscape:connector-curvature="0"
       id="path4596"
       style="fill:#02bcb6;fill-rule:evenodd;stroke-width:0.04951265;fill-opacity:1"
       d="m 102.75494,146.68339 1.8166,1.81661 -1.8166,1.81659 c -0.11783,0.11784 -0.11783,0.31064 0,0.42846 l 10e-6,1e-5 c 0.11782,0.11783 0.31061,0.11783 0.42845,0 l 1.8166,-1.81659 1.81661,1.81661 c 0.11783,0.11783 0.31064,0.11782 0.42845,0 l 1e-5,-2e-5 c 0.11783,-0.11782 0.11783,-0.3106 1e-5,-0.42844 l -1.81662,-1.81662 1.81662,-1.81662 c 0.11783,-0.11784 0.11782,-0.31062 0,-0.42844 l -2e-5,-2e-5 c -0.11781,-0.11783 -0.31062,-0.11782 -0.42845,0 L 105,148.07154 l -1.8166,-1.8166 c -0.11784,-0.11783 -0.31063,-0.11783 -0.42845,0 l -2e-5,1e-5 c -0.11782,0.11783 -0.11782,0.31063 1e-5,0.42844 z" />
  </g>
</svg>
