<?xml version="1.0" encoding="UTF-8" standalone="no"?>
<!-- Created with Inkscape (http://www.inkscape.org/) -->

<svg
   xmlns:dc="http://purl.org/dc/elements/1.1/"
   xmlns:cc="http://creativecommons.org/ns#"
   xmlns:rdf="http://www.w3.org/1999/02/22-rdf-syntax-ns#"
   xmlns:svg="http://www.w3.org/2000/svg"
   xmlns="http://www.w3.org/2000/svg"
   xmlns:sodipodi="http://sodipodi.sourceforge.net/DTD/sodipodi-0.dtd"
   xmlns:inkscape="http://www.inkscape.org/namespaces/inkscape"
   width="173.19701"
   height="150"
   viewBox="0 0 45.82504 39.687501"
   version="1.1"
   id="svg4091"
   inkscape:version="0.92.3 (2405546, 2018-03-11)">
  <defs
     id="defs4085" />
  <sodipodi:namedview
     id="base"
     pagecolor="#ffffff"
     bordercolor="#666666"
     borderopacity="1.0"
     inkscape:pageopacity="0.0"
     inkscape:pageshadow="2"
     inkscape:zoom="1.979899"
     inkscape:cx="13.045816"
     inkscape:cy="96.634642"
     inkscape:document-units="mm"
     inkscape:current-layer="layer1"
     showgrid="false"
     units="px"
     inkscape:window-width="1366"
     inkscape:window-height="705"
     inkscape:window-x="-8"
     inkscape:window-y="-8"
     inkscape:window-maximized="1" />
  <metadata
     id="metadata4088">
    <rdf:RDF>
      <cc:Work
         rdf:about="">
        <dc:format>image/svg+xml</dc:format>
        <dc:type
           rdf:resource="http://purl.org/dc/dcmitype/StillImage" />
        <dc:title></dc:title>
      </cc:Work>
    </rdf:RDF>
  </metadata>
  <g
     inkscape:label="Taso 1"
     inkscape:groupmode="layer"
     id="layer1"
     transform="translate(0,-257.31248)">
    <path
       d="m 31.391618,270.02293 h 1.925047 v 1.92893 H 31.391618 Z M 8.2646742,267.13357 c 0,-0.63366 0.5510035,-1.37769 1.1612414,-1.55879 l 16.1829474,-4.85363 v 34.35389 H 8.2646742 Z m 27.7366998,0.30326 c 0.614116,0.20466 1.16904,0.97622 1.16904,1.62187 v 26.01634 h -9.632506 v -30.45685 z m 5.235625,27.63821 h -2.141572 v -26.01258 c 0,-1.47206 -1.094491,-2.98389 -2.487811,-3.45227 l -9.073744,-3.02722 v -3.161 c 0,-0.30302 -0.145693,-0.59046 -0.389756,-0.77145 -0.243988,-0.18111 -0.559036,-0.2363 -0.85019,-0.14969 l -17.4229327,5.22764 c -1.4212112,0.42533 -2.5313711,1.92125 -2.5313711,3.40111 v 27.94147 H 4.5879218 c -0.5314561,0 -0.9643462,0.43297 -0.9643462,0.96446 0,0.53138 0.4328901,0.96447 0.9643462,0.96447 H 41.236999 c 0.531262,0 0.964467,-0.43309 0.964467,-0.96447 0,-0.53149 -0.433205,-0.96047 -0.964467,-0.96047 z m -21.410813,-9.63262 h 1.928929 v 1.92517 h -1.928929 z m 0,3.85398 h 1.928929 v 1.92882 h -1.928929 z m 0,-7.70792 h 1.928929 v 1.92893 h -1.928929 z m 0,-3.85774 h 1.928929 v 1.92893 h -1.928929 z m 0,-3.85383 h 1.928929 v 1.92882 h -1.928929 z m 0,-3.85398 h 1.928929 v 1.92893 H 19.826186 Z M 12.1185,285.44242 h 1.928929 v 1.92517 H 12.1185 Z m 0,3.85398 h 1.928929 v 1.92882 H 12.1185 Z m 0,-7.70792 h 1.928929 v 1.92893 H 12.1185 Z m 0,-3.85774 h 1.928929 v 1.92893 H 12.1185 Z m 0,-3.85383 h 1.928929 v 1.92882 H 12.1185 Z m 0,-3.85398 h 1.928929 v 1.92893 H 12.1185 Z m 3.853861,15.41949 h 1.928812 v 1.92517 h -1.928812 z m 0,3.85398 h 1.928812 v 1.92882 h -1.928812 z m 0,-7.70792 h 1.928812 v 1.92893 h -1.928812 z m 0,-3.85774 h 1.928812 v 1.92893 h -1.928812 z m 0,-3.85383 h 1.928812 v 1.92882 h -1.928812 z m 0,-3.85398 h 1.928812 v 1.92893 h -1.928812 z m 15.419257,15.41949 h 1.925047 v 1.92517 h -1.925047 z m 0,3.85398 h 1.925047 v 1.92882 h -1.925047 z m 0,-7.70792 h 1.925047 v 1.92893 h -1.925047 z m 0,-3.85774 h 1.925047 v 1.92893 h -1.925047 z m 0,-3.85383 h 1.925047 v 1.92882 h -1.925047 z"
       style="fill:#6aceb2;fill-opacity:1;fill-rule:nonzero;stroke:none;stroke-width:0.3917563"
       id="path4071"
       inkscape:connector-curvature="0" />
  </g>
</svg>
